Lab 4
…
str(bioClean)

## tibble [116 x 8] (S3: tbl_df/tbl/data.frame)
##  $ Name      : chr [1:116] "Akers, Landen" "Allen, Chase" "Anderson, Ezeriah" "Antoine Jr. , Michal" ...
##  $ Position  : chr [1:116] "Wide Receiver" "Tight End" "Wide Receiver" "Defensive Back" ...
##  $ feet      : chr [1:116] "6" "6" "6" "6" ...
##  $ inches    : chr [1:116] "0" "7" "5" "0" ...
##  $ Weight    : num [1:116] 191 240 208 180 195 199 253 261 288 182 ...
##  $ Class     : chr [1:116] "Redshirt Senior" "Redshirt Senior" "Redshirt Freshman" "Freshman" ...
##  $ Hometown  : chr [1:116] "Cedar Rapids, Iowa" "Nixa, Mo." "Seffner, Fla." "Ft. Lauderdale, Fla." ...
##  $ Highschool: chr [1:116] "Washington" "Nixa" "Armwood" "Cardinal Gibbons" ...

defClean

## # A tibble: 372 x 12
## # Groups:   Name, Opponent_Opponent [344]
##    Name       Opponent_Oppone~ Tackles_Solo Tackles_ASST Tackles_TFL Tackles_Sack
##    <fct>      <fct>                   <dbl>        <dbl>       <dbl>        <dbl>
##  1 Rose, Mike Louisiana                   2            4         1            0  
##  2 Rose, Mike TCU                         6            4         0            0  
##  3 Rose, Mike Oklahoma                    6            5         1.5          0.5
##  4 Rose, Mike Texas Tech                  3            0         1            0  
##  5 Rose, Mike Oklahoma St.                7            3         1            0  
##  6 Rose, Mike Kansas                      4            1         0            0  
##  7 Rose, Mike Baylor                      7            4         1.5          0  
##  8 Rose, Mike Kansas State                4            3         2.5          1  
##  9 Rose, Mike Texas                       4            9         1.5          0  
## 10 Rose, Mike West Virginia               2            3         0            0  
## # ... with 362 more rows, and 6 more variables: Turnover_FF <dbl>,
## #   Turnover_FR <dbl>, Turnover_INT <dbl>, Pass_QBH <dbl>, Pass_PB <dbl>,
## #   timesPlayed <int>

offClean

## # A tibble: 156 x 13
## # Groups:   Name, Opponent_Opponent [143]
##    Name          Opponent_Oppone~ Receiving_REC Receiving_YDS Receiving_TD Rushing_ATT
##    <fct>         <fct>                    <dbl>         <dbl>        <dbl>       <dbl>
##  1 Akers, Landen Louisiana                    0             0            0          NA
##  2 Akers, Landen TCU                          2            60            0          NA
##  3 Akers, Landen Oklahoma                     1            35            0          NA
##  4 Akers, Landen Texas Tech                   4            34            0          NA
##  5 Akers, Landen Oklahoma St.                 0             0            0          NA
##  6 Akers, Landen Kansas                       6            76            0          NA
##  7 Akers, Landen Baylor                       1            11            0          NA
##  8 Akers, Landen Kansas State                 0             0            0          NA
##  9 Akers, Landen Texas                        1            10            0          NA
## 10 Akers, Landen West Virginia                1             2            1          NA
## # ... with 146 more rows, and 7 more variables: Rushing_YDS <dbl>,
## #   Rushing_TD <dbl>, Passing_CMP-ATT <dbl>, Passing_YDS <dbl>,
## #   Passing_TD <dbl>, Passing_INT <dbl>, timesPlayed <int>

bioClean

## # A tibble: 116 x 8
##    Name                 Position       feet  inches Weight Class Hometown Highschool
##    <chr>                <chr>          <chr> <chr>   <dbl> <chr> <chr>    <chr>     
##  1 Akers, Landen        Wide Receiver  6     0         191 Reds~ Cedar R~ Washington
##  2 Allen, Chase         Tight End      6     7         240 Reds~ Nixa, M~ Nixa      
##  3 Anderson, Ezeriah    Wide Receiver  6     5         208 Reds~ Seffner~ Armwood   
##  4 Antoine Jr. , Michal Defensive Back 6     0         180 Fres~ Ft. Lau~ Cardinal ~
##  5 Assalley, Connor     Placekicker    6     0         195 Reds~ Napervi~ Central   
##  6 Azunna, Arnold       Defensive Back 6     0         199 Reds~ Grand P~ Lake Ridge
##  7 Bailey, Cordarrius   Defensive End  6     3         253 Reds~ Clarksd~ Clarksdale
##  8 Bailey, JaQuan       Defensive End  6     2         261 Reds~ Jackson~ Raines    
##  9 Bailey, Joshua       Defensive Line 6     2         288 Reds~ Jackson~ Raines    
## 10 Bitter, Aidan        Wide Receiver  6     2         182 Fres~ Tampa, ~ Steinbren~
## # ... with 106 more rows

offClean <- offClean %>% pivot_longer(Receiving_REC:Passing_INT, names_to = 'stat', values_to = 'score')
offClean

## # A tibble: 1,560 x 5
## # Groups:   Name, Opponent_Opponent [143]
##    Name          Opponent_Opponent timesPlayed stat            score
##    <fct>         <fct>                   <int> <chr>           <dbl>
##  1 Akers, Landen Louisiana                   1 Receiving_REC       0
##  2 Akers, Landen Louisiana                   1 Receiving_YDS       0
##  3 Akers, Landen Louisiana                   1 Receiving_TD        0
##  4 Akers, Landen Louisiana                   1 Rushing_ATT        NA
##  5 Akers, Landen Louisiana                   1 Rushing_YDS        NA
##  6 Akers, Landen Louisiana                   1 Rushing_TD         NA
##  7 Akers, Landen Louisiana                   1 Passing_CMP-ATT    NA
##  8 Akers, Landen Louisiana                   1 Passing_YDS        NA
##  9 Akers, Landen Louisiana                   1 Passing_TD         NA
## 10 Akers, Landen Louisiana                   1 Passing_INT        NA
## # ... with 1,550 more rows

offClean <- offClean %>% group_by(Name, stat) %>% mutate(statSum = sum(score, na.rm = TRUE))
offClean

## # A tibble: 1,560 x 6
## # Groups:   Name, stat [160]
##    Name          Opponent_Opponent timesPlayed stat            score statSum
##    <fct>         <fct>                   <int> <chr>           <dbl>   <dbl>
##  1 Akers, Landen Louisiana                   1 Receiving_REC       0      18
##  2 Akers, Landen Louisiana                   1 Receiving_YDS       0     269
##  3 Akers, Landen Louisiana                   1 Receiving_TD        0       1
##  4 Akers, Landen Louisiana                   1 Rushing_ATT        NA       0
##  5 Akers, Landen Louisiana                   1 Rushing_YDS        NA       0
##  6 Akers, Landen Louisiana                   1 Rushing_TD         NA       0
##  7 Akers, Landen Louisiana                   1 Passing_CMP-ATT    NA       0
##  8 Akers, Landen Louisiana                   1 Passing_YDS        NA       0
##  9 Akers, Landen Louisiana                   1 Passing_TD         NA       0
## 10 Akers, Landen Louisiana                   1 Passing_INT        NA       0
## # ... with 1,550 more rows
…
offClean4 <- offClean %>% pivot_wider(names_from = 'Opponent_Opponent', values_from = 'score') %>% filter(stat=='Receiving_YDS') %>% select(Name, Oregon, Oklahoma)

## Adding missing grouping variables: `stat`

offClean4

## # A tibble: 29 x 4
## # Groups:   Name, stat [16]
##    stat          Name               Oregon Oklahoma
##    <chr>         <fct>               <dbl>    <dbl>
##  1 Receiving_YDS Akers, Landen          16       35
##  2 Receiving_YDS Akers, Landen          NA       25
##  3 Receiving_YDS Brock, Jirehl           0        0
##  4 Receiving_YDS Brock, Jirehl          NA        6
##  5 Receiving_YDS Hutchinson, Xavier     45       83
##  6 Receiving_YDS Hutchinson, Xavier     NA      114
##  7 Receiving_YDS Nwangwu, Kene           0        0
##  8 Receiving_YDS Nwangwu, Kene          NA        0
##  9 Receiving_YDS Purdy, Brock           NA       NA
## 10 Receiving_YDS Purdy, Brock           NA       NA
## # ... with 19 more rows
…
## # A tibble: 6 x 9
##   Name                 Position feet  inches Weight Class City  State Highschool
##   <chr>                <chr>    <chr> <chr>   <dbl> <chr> <chr> <chr> <chr>     
## 1 Akers, Landen        Wide Re~ 6     0         191 Reds~ Ceda~ " Io~ Washington
## 2 Allen, Chase         Tight E~ 6     7         240 Reds~ Nixa  " Mo~ Nixa      
## 3 Anderson, Ezeriah    Wide Re~ 6     5         208 Reds~ Seff~ " Fl~ Armwood   
## 4 Antoine Jr. , Michal Defensi~ 6     0         180 Fres~ Ft. ~ " Fl~ Cardinal ~
## 5 Assalley, Connor     Placeki~ 6     0         195 Reds~ Nape~ " Il~ Central   
## 6 Azunna, Arnold       Defensi~ 6     0         199 Reds~ Gran~ " Te~ Lake Ridge

bioClean

## # A tibble: 116 x 9
##    Name                 Position feet  inches Weight Class City  State Highschool
##    <chr>                <chr>    <chr> <chr>   <dbl> <chr> <chr> <chr> <chr>     
##  1 Akers, Landen        Wide Re~ 6     0         191 Reds~ Ceda~ " Io~ Washington
##  2 Allen, Chase         Tight E~ 6     7         240 Reds~ Nixa  " Mo~ Nixa      
##  3 Anderson, Ezeriah    Wide Re~ 6     5         208 Reds~ Seff~ " Fl~ Armwood   
##  4 Antoine Jr. , Michal Defensi~ 6     0         180 Fres~ Ft. ~ " Fl~ Cardinal ~
##  5 Assalley, Connor     Placeki~ 6     0         195 Reds~ Nape~ " Il~ Central   
##  6 Azunna, Arnold       Defensi~ 6     0         199 Reds~ Gran~ " Te~ Lake Ridge
##  7 Bailey, Cordarrius   Defensi~ 6     3         253 Reds~ Clar~ " Mi~ Clarksdale
##  8 Bailey, JaQuan       Defensi~ 6     2         261 Reds~ Jack~ " Fl~ Raines    
##  9 Bailey, Joshua       Defensi~ 6     2         288 Reds~ Jack~ " Fl~ Raines    
## 10 Bitter, Aidan        Wide Re~ 6     2         182 Fres~ Tampa " Fl~ Steinbren~
## # ... with 106 more rows

count(bioClean, State)

## # A tibble: 21 x 2
##    State            n
##    <chr>        <int>
##  1 " Ariz."         4
##  2 " Ark."          1
##  3 " Australia"     1
##  4 " Calif."        2
##  5 " Fla."         14
##  6 " Ga."           3
##  7 " Ill."          6
##  8 " Iowa"         42
##  9 " Kan."          4
## 10 " Mich"          1
## # ... with 11 more rows
…
